trade_data_ESCAPE
…
── Conflicts ────────────────────────────────────────── tidyverse_conflicts() ──
✖ dplyr::filter() masks stats::filter()
✖ dplyr::lag()    masks stats::lag()

load("trade_data.RData")

You can add options to executable code like this=

[1] "reporter" "flow"     "partner"  "year"     "value"   

Warning: NAs introduced by coercion

# A tibble: 691,923 × 5
   reporter flow  partner  year       value
      <dbl> <chr>   <dbl> <dbl>       <dbl>
 1      213 I         186  2008   156130202
 2      213 E         174  2008   117661208
 3      213 E         172  2008    31986252
 4      213 E         134  2008  1507966544
 5      213 I         181  2008     2407260
 6      213 I         182  2008    80414681
 7      213 I         676  2008      991884
 8      213 E         258  2008   107246580
 9      614 I         110  2008 15302709034
10      213 E         648  2008     2660760
# … with 691,913 more rows
# ℹ Use `print(n = ...)` to see more rows
…
Rows: 245 Columns: 10
── Column specification ────────────────────────────────────────────────────────
Delimiter: ","
chr (5): iso2, country, region, income_level, AP_region
dbl (5): code, isCountry, LLDC, LDC, SIDS

ℹ Use `spec()` to retrieve the full column specification for this data.
ℹ Specify the column types or set `show_col_types = FALSE` to quiet this message.

codes<-imf_codes %>%  select(code,country,isCountry, region)
cntry_w <- codes %>% filter(isCountry==1|code==1) %>% select(code)
cntry_w

# A tibble: 216 × 1
    code
   <dbl>
 1   512
 2   799
 3   914
 4   612
 5     1
 6   859
 7   614
 8   312
 9   311
10   213
# … with 206 more rows
# ℹ Use `print(n = ...)` to see more rows
…
Merge country codes and trade_data

CN_X_countries<-trade_data %>% filter(flow=="E"&reporter==924&year==2016&partner!=1) 
CN_X_countries

# A tibble: 225 × 5
   reporter flow  partner  year   value
      <dbl> <chr>   <dbl> <dbl>   <dbl>
 1      924 E         293  2016   6.08 
 2      924 E         672  2016   1.24 
 3      924 E         744  2016   1.32 
 4      924 E         399  2016   0.217
 5      924 E         156  2016  27.9  
 6      924 E         405  2016 103.   
 7      924 E         283  2016   6.47 
 8      924 E         903  2016  44.3  
 9      924 E         714  2016   0.111
10      924 E         433  2016   7.74 
# … with 215 more rows
# ℹ Use `print(n = ...)` to see more rows

CNX_merged<-left_join(CN_X_countries,codes,by=c("partner"="code"))
CNX_merged<-CNX_merged %>% select(country, value, isCountry,region)
#CNX_merged <- merge(CN_X_countries,codes, by.x="partner",by.y="code")
#CNX_merged <- CNX_merged[, c("country", "value", "isCountry","region")]
#head(CNX_merged)

CNX_merged

# A tibble: 225 × 4
   country                            value isCountry region                    
   <chr>                              <dbl>     <dbl> <chr>                     
 1 Peru                               6.08          1 Latin America and Carribe…
 2 Libya                              1.24          1 Africa and Middle East    
 3 Tunisia                            1.32          1 Africa and Middle East    
 4 Western Hemisphere not specified   0.217         0 <NA>                      
 5 Canada                            27.9           1 North America             
 6 Middle East                      103.            0 <NA>                      
 7 Panama                             6.47          1 Latin America and Carribe…
 8 Emerging and Developing Europe    44.3           0 <NA>                      
 9 Rwanda                             0.111         1 Africa and Middle East    
10 Iraq                               7.74          1 Africa and Middle East    
# … with 215 more rows
# ℹ Use `print(n = ...)` to see more rows
…
Pakistan

Lets do the same exercise for Pakistan before proceeding further.

PK_X_countries <-trade_data %>% filter(flow=="E"&reporter==564&year==2016&partner!=1)

PKX_merged<-left_join(PK_X_countries,codes,by=c("partner"="code"))
PKX_merged<-PKX_merged %>% select(country, value, isCountry,region)
PKX_merged

# A tibble: 207 × 4
   country                  value isCountry region                     
   <chr>                    <dbl>     <dbl> <chr>                      
 1 Somalia              0.0329            1 Africa and Middle East     
 2 Albania              0.00430           1 Europe                     
 3 Syrian Arab Republic 0.0158            1 Africa and Middle East     
 4 Morocco              0.0175            1 Africa and Middle East     
 5 Angola               0.0171            1 Africa and Middle East     
 6 Netherlands          0.651             1 Europe                     
 7 Niger                0.0000769         1 Africa and Middle East     
 8 Paraguay             0.00672           1 Latin America and Carribean
 9 Gabon                0.00155           1 Africa and Middle East     
10 Peru                 0.0261            1 Latin America and Carribean
# … with 197 more rows
# ℹ Use `print(n = ...)` to see more rows
…
