Using tidyverse for trade analysis
…
To get idea about the nature of this data, one may get glimpse ,names or usehead etc.

names(trade_data)

[1] "reporter" "flow"     "partner"  "year"     "value"   

trade_data$value <- as.numeric(as.character(trade_data$value)) # trade value as numeric

Warning: NAs introduced by coercion

# drop missing values
trade_data <- trade_data[!is.na(trade_data$value),]
trade_data

# A tibble: 691,923 × 5
   reporter flow  partner  year       value
      <dbl> <chr>   <dbl> <dbl>       <dbl>
 1      213 I         186  2008   156130202
 2      213 E         174  2008   117661208
 3      213 E         172  2008    31986252
 4      213 E         134  2008  1507966544
 5      213 I         181  2008     2407260
 6      213 I         182  2008    80414681
 7      213 I         676  2008      991884
 8      213 E         258  2008   107246580
 9      614 I         110  2008 15302709034
10      213 E         648  2008     2660760
# … with 691,913 more rows
# ℹ Use `print(n = ...)` to see more rows
…
Rows: 245 Columns: 10
── Column specification ────────────────────────────────────────────────────────
Delimiter: ","
chr (5): iso2, country, region, income_level, AP_region
dbl (5): code, isCountry, LLDC, LDC, SIDS

ℹ Use `spec()` to retrieve the full column specification for this data.
ℹ Specify the column types or set `show_col_types = FALSE` to quiet this message.

codes<-imf_codes %>%  select(code,country,isCountry, region)
cntry_w <- codes %>% filter(isCountry==1|code==1) %>% select(code)
cntry_w

# A tibble: 216 × 1
    code
   <dbl>
 1   512
 2   799
 3   914
 4   612
 5     1
 6   859
 7   614
 8   312
 9   311
10   213
# … with 206 more rows
# ℹ Use `print(n = ...)` to see more rows
…
Merge country codes and trade_data

Lets do the same exercise for Pakistan before proceeding further.

PK_X_countries <-trade_data %>% filter(flow=="E"&reporter==564&year==2016&partner!=1)

PKX_merged<-left_join(PK_X_countries,codes,by=c("partner"="code"))
PKX_merged<-PKX_merged %>% select(country, value, isCountry,region)
PKX_merged

# A tibble: 207 × 4
   country                  value isCountry region                     
   <chr>                    <dbl>     <dbl> <chr>                      
 1 Somalia              0.0329            1 Africa and Middle East     
 2 Albania              0.00430           1 Europe                     
 3 Syrian Arab Republic 0.0158            1 Africa and Middle East     
 4 Morocco              0.0175            1 Africa and Middle East     
 5 Angola               0.0171            1 Africa and Middle East     
 6 Netherlands          0.651             1 Europe                     
 7 Niger                0.0000769         1 Africa and Middle East     
 8 Paraguay             0.00672           1 Latin America and Carribean
 9 Gabon                0.00155           1 Africa and Middle East     
10 Peru                 0.0261            1 Latin America and Carribean
# … with 197 more rows
# ℹ Use `print(n = ...)` to see more rows
…
